timestamp,reaction,profit,profit_margin,profit_percentage,markup,cost_price,runs,system_cost_index,facility_tax_rate,full_sales_tax,buy_inputs
2020-03-01T18:05:13.436865,CaesariumCadmideReactionFormula,-53123.13,-1.7,-1.67,98.33,15866.87,1,0.0027,0.0,0.055,False
2020-03-01T18:05:13.436865,CarbonPolymersReactionFormula,68156.86,18.02,21.98,121.98,1545.56,1,0.0027,0.0,0.055,False
2020-03-01T18:05:13.436865,CeramicPowderReactionFormula,951.64,0.2,0.2,100.2,2351.05,1,0.0027,0.0,0.055,False
2020-03-01T18:05:13.452478,CrystalliteAlloyReactionFormula,-1594.23,-0.1,-0.1,99.9,8029.36,1,0.0027,0.0,0.055,False
2020-03-01T18:05:13.452478,DysporiteReactionFormula,-715842.35,-9.86,-8.97,91.03,39772.14,1,0.0027,0.0,0.055,False
2020-03-01T18:05:13.452478,FerniteAlloyReactionFormula,-115504.79,-9.4,-8.59,91.41,6699.41,1,0.0027,0.0,0.055,False
2020-03-01T18:05:13.468112,FerrofluidReactionFormula,866581.37,9.17,10.09,110.09,42789.84,1,0.0027,0.0,0.055,False
2020-03-01T18:05:13.468112,FluxedCondensatesReactionFormula,-1687713.49,-17.47,-14.87,85.13,56562.96,1,0.0027,0.0,0.055,False
2020-03-01T18:05:13.483725,HexiteReactionFormula,68649.83,2.74,2.82,102.82,12139.41,1,0.0027,0.0,0.055,False
2020-03-01T18:05:13.483725,HyperfluriteReactionFormula,-1742196.7,-28.93,-22.44,77.56,38697.59,1,0.0027,0.0,0.055,False
2020-03-01T18:05:13.483725,NeoMercuriteReactionFormula,-477360.45,-5.82,-5.5,94.5,43270.3,1,0.0027,0.0,0.055,False
2020-03-01T18:05:13.499359,PlatinumTechniteReactionFormula,351286.03,8.84,9.7,109.7,18044.5,1,0.0027,0.0,0.055,False
2020-03-01T18:05:13.499359,PromethiumMercuriteReactionFormula,-594430.83,-8.38,-7.73,92.27,38323.66,1,0.0027,0.0,0.055,False
2020-03-01T18:05:13.499359,PrometiumReactionFormula,173849.07,2.11,2.15,102.15,40215.49,1,0.0027,0.0,0.055,False
2020-03-01T18:05:13.514986,RolledTungstenAlloyReactionFormula,58491.89,2.79,2.87,102.87,10163.84,1,0.0027,0.0,0.055,False
2020-03-01T18:05:13.514986,SiliconDiboriteReactionFormula,-188.58,-0.04,-0.04,99.96,2358.57,1,0.0027,0.0,0.055,False
2020-03-01T18:05:13.514986,SoleriumReactionFormula,583955.09,16.67,20.01,120.01,14544.18,1,0.0027,0.0,0.055,False
2020-03-01T18:05:13.530610,SulfuricAcidReactionFormula,15506.59,5.47,5.78,105.78,1336.57,1,0.0027,0.0,0.055,False
2020-03-01T18:05:13.530610,ThuliumHafniteReactionFormula,-252326.27,-5.04,-4.8,95.2,26228.43,1,0.0027,0.0,0.055,False
2020-03-01T18:05:13.530610,TitaniumChromideReactionFormula,339889.07,16.84,20.25,120.25,8367.71,1,0.0027,0.0,0.055,False
2020-03-02T20:36:58.419937,CaesariumCadmideReactionFormula,-52244.22,-1.67,-1.64,98.36,15866.84,1,0.0027,0.0,0.055,False
2020-03-02T20:36:58.430109,CarbonPolymersReactionFormula,67644.48,17.88,21.77,121.77,1548.88,1,0.0027,0.0,0.055,False
2020-03-02T20:36:58.430109,CeramicPowderReactionFormula,-7136.45,-1.5,-1.48,98.52,2400.02,1,0.0027,0.0,0.055,False
2020-03-02T20:36:58.440289,CrystalliteAlloyReactionFormula,-20111.9,-1.25,-1.23,98.77,8121.95,1,0.0027,0.0,0.055,False
2020-03-02T20:36:58.450382,DysporiteReactionFormula,-889557.62,-12.25,-10.91,89.09,40640.72,1,0.0027,0.0,0.055,False
2020-03-02T20:36:58.455386,FerniteAlloyReactionFormula,-181805.45,-14.8,-12.89,87.11,7030.54,1,0.0027,0.0,0.055,False
2020-03-02T20:36:58.460420,FerrofluidReactionFormula,591288.48,6.26,6.67,106.67,44166.69,1,0.0027,0.0,0.055,False
2020-03-02T20:36:58.470750,FluxedCondensatesReactionFormula,-1865827.44,-19.32,-16.19,83.81,57445.33,1,0.0027,0.0,0.055,False
2020-03-02T20:36:58.475754,HexiteReactionFormula,23434.01,0.94,0.94,100.94,12365.29,1,0.0027,0.0,0.055,False
2020-03-02T20:36:58.480784,HyperfluriteReactionFormula,-2314917.28,-38.44,-27.77,72.23,41561.09,1,0.0027,0.0,0.055,False
2020-03-02T20:36:58.492795,NeoMercuriteReactionFormula,-482072.89,-5.88,-5.55,94.45,43291.42,1,0.0027,0.0,0.055,False
2020-03-02T20:36:58.502792,PlatinumTechniteReactionFormula,248401.4,6.25,6.67,106.67,18553.44,1,0.0027,0.0,0.055,False
2020-03-02T20:36:58.508790,PromethiumMercuriteReactionFormula,-1104280.89,-15.57,-13.47,86.53,40873.19,1,0.0027,0.0,0.055,False
2020-03-02T20:36:58.515788,PrometiumReactionFormula,-331737.54,-4.02,-3.87,96.13,42743.55,1,0.0027,0.0,0.055,False
2020-03-02T20:36:58.523785,RolledTungstenAlloyReactionFormula,-60542.95,-2.89,-2.8,97.2,10759.57,1,0.0027,0.0,0.055,False
2020-03-02T20:36:58.529783,SiliconDiboriteReactionFormula,-7599.64,-1.61,-1.58,98.42,2395.77,1,0.0027,0.0,0.055,False
2020-03-02T20:36:58.537781,SoleriumReactionFormula,584781.76,16.7,20.04,120.04,14543.35,1,0.0027,0.0,0.055,False
2020-03-02T20:36:58.542779,SulfuricAcidReactionFormula,6152.0,2.17,2.22,102.22,1383.44,1,0.0027,0.0,0.055,False
2020-03-02T20:36:58.548953,ThuliumHafniteReactionFormula,-532075.4,-10.62,-9.6,90.4,27622.56,1,0.0027,0.0,0.055,False
2020-03-02T20:36:58.551977,TitaniumChromideReactionFormula,324662.97,16.08,19.16,119.16,8444.22,1,0.0027,0.0,0.055,False
