timestamp,bp,profit,profit_margin,profit_percentage,cost_price,runs,system_cost_index,facility_tax_rate,full_sales_tax,buy_inputs,bp_id,product_id,group_id,group_name
2020-05-12,TenguManufacture,-194629.16,-0.11,-0.11,164806030.16,1,0.03,0.1,0.05,buy,29985,29984,963,Strategic Cruiser
2020-05-10,TenguManufacture,13936034.24,7.87,8.54,157932203.06,1,0.03,0.1,0.05,buy,29985,29984,963,Strategic Cruiser
2020-05-09,TenguManufacture,77850147.42,45.83,84.61,89070525.25,1,0.03,0.1,0.05,buy,29985,29984,963,Strategic Cruiser
2020-05-07,TenguManufacture,60899037.56,35.42,54.84,107503351.83,1,0.03,0.1,0.05,buy,29985,29984,963,Strategic Cruiser
2020-04-27,TenguManufacture,14547192.47,7.62,8.25,170767480.67,1,0.03,0.1,0.05,buy,29985,29984,963,Strategic Cruiser
2020-04-25,TenguManufacture,-2600959.96,-1.45,-1.43,176607899.28,1,0.03,0.1,0.05,buy,29985,29984,963,Strategic Cruiser
2020-04-21,TenguManufacture,7859811.37,4.15,4.33,175861750.85,1,0.03,0.1,0.05,buy,29985,29984,963,Strategic Cruiser
2020-04-15,TenguManufacture,105087072.58,58.87,143.14,71072533.8,1,0.03,0.1,0.05,buy,29985,29984,963,Strategic Cruiser
2020-04-11,TenguManufacture,-2354931.55,-1.25,-1.23,184646593.95,1,0.03,0.1,0.05,buy,29985,29984,963,Strategic Cruiser
2020-04-08,TenguManufacture,59003314.16,34.2,51.98,109890305.75,1,0.03,0.1,0.05,buy,29985,29984,963,Strategic Cruiser
2020-04-06,TenguManufacture,-3330678.46,-1.89,-1.85,174187491.25,1,0.03,0.1,0.05,buy,29985,29984,963,Strategic Cruiser
2020-03-31,TenguManufacture,79486203.03,43.17,75.97,101281507.23,1,0.03,0.1,0.05,buy,29985,29984,963,Strategic Cruiser
2020-03-22,TenguManufacture,-22578487.9,-11.77,-10.53,207534838.24,1,0.03,0.1,0.05,buy,29985,29984,963,Strategic Cruiser
2020-03-19,TenguManufacture,78238133.19,40.0,66.66,113617489.65,1,0.03,0.1,0.05,buy,29985,29984,963,Strategic Cruiser
2020-03-14,TenguManufacture,14409458.34,6.35,6.78,205755606.64,1,0.03,0.1,0.05,buy,29985,29984,963,Strategic Cruiser
2020-02-20,TenguManufacture,-58606129.14,-34.5,-25.65,221157328.71,1,0.03,0.1,0.05,buy,29985,29984,963,Strategic Cruiser
2020-02-18,TenguManufacture,-60027923.59,-35.32,-26.1,222645131.5,1,0.03,0.1,0.05,buy,29985,29984,963,Strategic Cruiser
2020-02-12,TenguManufacture,-5499871.83,-3.69,-3.56,149479542.21,1,0.03,0.1,0.05,buy,29985,29984,963,Strategic Cruiser
2020-02-10,TenguManufacture,28889429.06,19.39,24.06,116234637.89,1,0.03,0.1,0.05,buy,29985,29984,963,Strategic Cruiser
2020-02-08,TenguManufacture,19589133.72,14.58,17.07,111096829.49,1,0.03,0.1,0.05,buy,29985,29984,963,Strategic Cruiser
2020-01-31,TenguManufacture,40271634.42,27.83,38.57,101084303.31,1,0.03,0.1,0.05,buy,29985,29984,963,Strategic Cruiser
2020-01-25,TenguManufacture,10731540.35,6.85,7.35,141302692.87,1,0.03,0.1,0.05,buy,29985,29984,963,Strategic Cruiser
2020-01-24,TenguManufacture,4606879.85,2.94,3.03,147231695.96,1,0.03,0.1,0.05,buy,29985,29984,963,Strategic Cruiser
2020-01-19,TenguManufacture,69566458.56,42.56,74.09,90892064.06,1,0.03,0.1,0.05,buy,29985,29984,963,Strategic Cruiser
2020-01-10,TenguManufacture,56362031.39,39.03,64.02,85225525.3,1,0.03,0.1,0.05,buy,29985,29984,963,Strategic Cruiser
2020-01-08,TenguManufacture,13917006.79,9.51,10.51,128153913.96,1,0.03,0.1,0.05,buy,29985,29984,963,Strategic Cruiser
2020-01-06,TenguManufacture,60732766.94,40.72,68.69,85592674.79,1,0.03,0.1,0.05,buy,29985,29984,963,Strategic Cruiser
2019-12-31,TenguManufacture,60591912.96,41.42,70.7,82970072.74,1,0.03,0.1,0.05,buy,29985,29984,963,Strategic Cruiser
2019-12-30,TenguManufacture,3079717.99,2.16,2.21,134966385.59,1,0.03,0.1,0.05,buy,29985,29984,963,Strategic Cruiser
2019-12-16,TenguManufacture,64207517.26,42.86,75.01,82867682.56,1,0.03,0.1,0.05,buy,29985,29984,963,Strategic Cruiser
2019-12-10,TenguManufacture,-8768151.68,-6.22,-5.85,145056286.62,1,0.03,0.1,0.05,buy,29985,29984,963,Strategic Cruiser
2019-12-04,TenguManufacture,43603121.73,30.83,44.57,94713027.18,1,0.03,0.1,0.05,buy,29985,29984,963,Strategic Cruiser
2019-11-15,TenguManufacture,4570438.53,3.52,3.64,121416748.11,1,0.03,0.1,0.05,buy,29985,29984,963,Strategic Cruiser
2019-11-12,TenguManufacture,8209830.11,5.95,6.33,125518062.94,1,0.03,0.1,0.05,buy,29985,29984,963,Strategic Cruiser
2019-11-09,TenguManufacture,27853303.37,20.74,26.17,103020035.28,1,0.03,0.1,0.05,buy,29985,29984,963,Strategic Cruiser
2019-10-26,TenguManufacture,7551493.56,5.8,6.16,118672791.26,1,0.03,0.1,0.05,buy,29985,29984,963,Strategic Cruiser
2019-10-18,TenguManufacture,279580.18,0.21,0.21,130414668.73,1,0.03,0.1,0.05,buy,29985,29984,963,Strategic Cruiser
2019-09-08,TenguManufacture,24161392.47,14.59,17.09,136897300.32,1,0.03,0.1,0.05,buy,29985,29984,963,Strategic Cruiser
2019-08-13,TenguManufacture,79718578.28,49.72,98.89,78037235.44,1,0.03,0.1,0.05,buy,29985,29984,963,Strategic Cruiser
2019-08-11,TenguManufacture,10268605.06,6.21,6.62,150078784.36,1,0.03,0.1,0.05,buy,29985,29984,963,Strategic Cruiser
2019-07-20,TenguManufacture,45321032.92,25.66,34.52,127087008.23,1,0.03,0.1,0.05,buy,29985,29984,963,Strategic Cruiser
2019-07-17,TenguManufacture,26305002.32,15.27,18.02,141340400.5,1,0.03,0.1,0.05,buy,29985,29984,963,Strategic Cruiser
2019-07-16,TenguManufacture,75647587.71,43.82,78.01,93869670.29,1,0.03,0.1,0.05,buy,29985,29984,963,Strategic Cruiser
2019-07-15,TenguManufacture,53473140.42,33.1,49.48,104618895.86,1,0.03,0.1,0.05,buy,29985,29984,963,Strategic Cruiser
2019-07-07,TenguManufacture,-13600971.61,-9.48,-8.66,152022659.96,1,0.03,0.1,0.05,buy,29985,29984,963,Strategic Cruiser
2019-07-01,TenguManufacture,41333862.6,29.49,41.82,95680618.37,1,0.03,0.1,0.05,buy,29985,29984,963,Strategic Cruiser
2019-06-29,TenguManufacture,59007691.18,41.44,70.75,80733109.96,1,0.03,0.1,0.05,buy,29985,29984,963,Strategic Cruiser
2019-06-28,TenguManufacture,67828670.67,48.17,92.92,70663761.18,1,0.03,0.1,0.05,buy,29985,29984,963,Strategic Cruiser
2019-06-14,TenguManufacture,-20110714.87,-13.55,-11.93,163176514.07,1,0.03,0.1,0.05,buy,29985,29984,963,Strategic Cruiser
2019-06-12,TenguManufacture,26248900.42,17.2,20.77,122358296.23,1,0.03,0.1,0.05,buy,29985,29984,963,Strategic Cruiser
2019-06-08,TenguManufacture,50297571.05,32.88,49.0,99373113.61,1,0.03,0.1,0.05,buy,29985,29984,963,Strategic Cruiser
2019-05-29,TenguManufacture,-8163984.58,-5.44,-5.16,153104607.74,1,0.03,0.1,0.05,buy,29985,29984,963,Strategic Cruiser
2019-05-16,TenguManufacture,-48253387.76,-34.17,-25.47,183417556.54,1,0.03,0.1,0.05,buy,29985,29984,963,Strategic Cruiser
2019-04-23,TenguManufacture,59739464.64,38.11,61.58,93911369.92,1,0.03,0.1,0.05,buy,29985,29984,963,Strategic Cruiser
2019-04-18,TenguManufacture,43153472.52,27.31,37.57,111187055.23,1,0.03,0.1,0.05,buy,29985,29984,963,Strategic Cruiser
2019-04-15,TenguManufacture,-21981846.07,-13.38,-11.8,180370122.21,1,0.03,0.1,0.05,buy,29985,29984,963,Strategic Cruiser
2020-05-09,LegionManufacture,36768550.8,27.09,37.15,95798925.25,1,0.03,0.1,0.05,buy,29987,29986,963,Strategic Cruiser
2020-05-04,LegionManufacture,19529346.6,14.01,16.29,116056456.98,1,0.03,0.1,0.05,buy,29987,29986,963,Strategic Cruiser
2020-05-02,LegionManufacture,-40165841.57,-29.26,-22.64,171748301.46,1,0.03,0.1,0.05,buy,29987,29986,963,Strategic Cruiser
2020-04-30,LegionManufacture,73485976.1,51.72,107.12,66408997.57,1,0.03,0.1,0.05,buy,29987,29986,963,Strategic Cruiser
2020-04-29,LegionManufacture,-9094539.12,-6.53,-6.13,143558766.5,1,0.03,0.1,0.05,buy,29987,29986,963,Strategic Cruiser
2020-04-26,LegionManufacture,72365773.96,46.89,88.29,79342640.23,1,0.03,0.1,0.05,buy,29987,29986,963,Strategic Cruiser
2020-04-25,LegionManufacture,-34079815.78,-22.64,-18.46,178683899.28,1,0.03,0.1,0.05,buy,29987,29986,963,Strategic Cruiser
2020-04-18,LegionManufacture,31744958.08,24.93,33.21,92526041.53,1,0.03,0.1,0.05,buy,29987,29986,963,Strategic Cruiser
2020-04-07,LegionManufacture,58527791.69,35.36,54.7,103576269.34,1,0.03,0.1,0.05,buy,29987,29986,963,Strategic Cruiser
2020-03-25,LegionManufacture,22479842.77,13.61,15.75,138160434.32,1,0.03,0.1,0.05,buy,29987,29986,963,Strategic Cruiser
2020-03-07,LegionManufacture,-13049258.93,-7.71,-7.16,176548705.98,1,0.03,0.1,0.05,buy,29987,29986,963,Strategic Cruiser
2020-02-18,LegionManufacture,-113167138.67,-74.99,-42.85,255645131.62,1,0.03,0.1,0.05,buy,29987,29986,963,Strategic Cruiser
2020-02-13,LegionManufacture,-28837841.81,-20.12,-16.75,166647161.05,1,0.03,0.1,0.05,buy,29987,29986,963,Strategic Cruiser
2020-02-12,LegionManufacture,-9382128.58,-6.58,-6.17,147199603.53,1,0.03,0.1,0.05,buy,29987,29986,963,Strategic Cruiser
2020-01-18,LegionManufacture,-3663069.45,-2.58,-2.51,141053309.55,1,0.03,0.1,0.05,buy,29987,29986,963,Strategic Cruiser
2019-12-26,LegionManufacture,-5726589.93,-4.14,-3.97,139575517.54,1,0.03,0.1,0.05,buy,29987,29986,963,Strategic Cruiser
2019-12-04,LegionManufacture,42886193.03,30.52,43.93,94497075.06,1,0.03,0.1,0.05,buy,29987,29986,963,Strategic Cruiser
2019-11-17,LegionManufacture,38853401.5,28.36,39.58,95032670.28,1,0.03,0.1,0.05,buy,29987,29986,963,Strategic Cruiser
2019-11-12,LegionManufacture,27028497.31,19.82,24.72,105838106.74,1,0.03,0.1,0.05,buy,29987,29986,963,Strategic Cruiser
2019-11-09,LegionManufacture,-10220350.21,-8.02,-7.42,133287940.2,1,0.03,0.1,0.05,buy,29987,29986,963,Strategic Cruiser
2019-09-01,LegionManufacture,65974443.67,41.13,69.87,91404260.85,1,0.03,0.1,0.05,buy,29987,29986,963,Strategic Cruiser
2019-08-12,LegionManufacture,44668130.19,24.89,33.13,130502017.78,1,0.03,0.1,0.05,buy,29987,29986,963,Strategic Cruiser
2019-07-16,LegionManufacture,45724673.9,32.38,47.88,92450949.17,1,0.03,0.1,0.05,buy,29987,29986,963,Strategic Cruiser
2019-07-09,LegionManufacture,-2504756.12,-1.83,-1.8,134564972.79,1,0.03,0.1,0.05,buy,29987,29986,963,Strategic Cruiser
2019-07-07,LegionManufacture,2636102.08,1.91,1.95,130722716.6,1,0.03,0.1,0.05,buy,29987,29986,963,Strategic Cruiser
2019-07-01,LegionManufacture,62373182.88,44.74,80.97,74570774.45,1,0.03,0.1,0.05,buy,29987,29986,963,Strategic Cruiser
2019-06-28,LegionManufacture,73444683.54,51.52,106.26,66909345.78,1,0.03,0.1,0.05,buy,29987,29986,963,Strategic Cruiser
2019-06-27,LegionManufacture,46346886.62,32.65,48.48,92548805.21,1,0.03,0.1,0.05,buy,29987,29986,963,Strategic Cruiser
2019-06-15,LegionManufacture,-11306724.4,-7.65,-7.1,154102620.22,1,0.03,0.1,0.05,buy,29987,29986,963,Strategic Cruiser
2019-06-08,LegionManufacture,52891738.44,36.58,57.67,88788897.49,1,0.03,0.1,0.05,buy,29987,29986,963,Strategic Cruiser
2019-05-29,LegionManufacture,-22305164.24,-16.86,-14.42,149692743.86,1,0.03,0.1,0.05,buy,29987,29986,963,Strategic Cruiser
2019-04-18,LegionManufacture,41254102.23,24.23,31.98,124879198.63,1,0.03,0.1,0.05,buy,29987,29986,963,Strategic Cruiser
2019-04-14,LegionManufacture,9223075.23,5.64,5.97,149464686.22,1,0.03,0.1,0.05,buy,29987,29986,963,Strategic Cruiser
2020-05-09,ProteusManufacture,45616003.28,32.44,48.03,91948125.25,1,0.03,0.1,0.05,buy,29989,29988,963,Strategic Cruiser
2020-05-07,ProteusManufacture,-54023419.24,-39.4,-28.27,185016934.47,1,0.03,0.1,0.05,buy,29989,29988,963,Strategic Cruiser
2020-04-09,ProteusManufacture,-49817515.86,-30.08,-23.12,208558098.61,1,0.03,0.1,0.05,buy,29989,29988,963,Strategic Cruiser
2020-03-30,ProteusManufacture,31739711.99,21.06,26.68,115183162.57,1,0.03,0.1,0.05,buy,29989,29988,963,Strategic Cruiser
2020-01-31,ProteusManufacture,4335995.07,3.53,3.66,114566073.15,1,0.03,0.1,0.05,buy,29989,29988,963,Strategic Cruiser
2020-01-25,ProteusManufacture,2138142.87,1.67,1.69,122192693.83,1,0.03,0.1,0.05,buy,29989,29988,963,Strategic Cruiser
2020-01-06,ProteusManufacture,57809423.39,39.81,66.13,84620782.55,1,0.03,0.1,0.05,buy,29989,29988,963,Strategic Cruiser
2019-12-04,ProteusManufacture,49016196.65,33.54,50.47,94017087.42,1,0.03,0.1,0.05,buy,29989,29988,963,Strategic Cruiser
2019-11-21,ProteusManufacture,1374686.84,1.06,1.07,124516176.35,1,0.03,0.1,0.05,buy,29989,29988,963,Strategic Cruiser
2019-11-17,ProteusManufacture,26097924.98,19.73,24.57,102810651.6,1,0.03,0.1,0.05,buy,29989,29988,963,Strategic Cruiser
2019-11-09,ProteusManufacture,5121054.27,4.2,4.39,113007939.12,1,0.03,0.1,0.05,buy,29989,29988,963,Strategic Cruiser
2019-09-21,ProteusManufacture,-23963036.53,-16.82,-14.4,161075347.72,1,0.03,0.1,0.05,buy,29989,29988,963,Strategic Cruiser
2019-08-20,ProteusManufacture,41994459.03,26.52,36.09,112643412.62,1,0.03,0.1,0.05,buy,29989,29988,963,Strategic Cruiser
2019-08-12,ProteusManufacture,17058787.51,10.91,12.25,134796409.54,1,0.03,0.1,0.05,buy,29989,29988,963,Strategic Cruiser
2019-08-06,ProteusManufacture,45818420.84,29.45,41.74,106263010.44,1,0.03,0.1,0.05,buy,29989,29988,963,Strategic Cruiser
2019-07-31,ProteusManufacture,-13022142.69,-8.21,-7.59,166146062.62,1,0.03,0.1,0.05,buy,29989,29988,963,Strategic Cruiser
2019-07-28,ProteusManufacture,39020026.89,24.88,33.11,114073946.36,1,0.03,0.1,0.05,buy,29989,29988,963,Strategic Cruiser
2019-07-27,ProteusManufacture,-12000135.5,-7.65,-7.11,163477266.52,1,0.03,0.1,0.05,buy,29989,29988,963,Strategic Cruiser
2019-07-20,ProteusManufacture,38996312.57,24.8,32.97,114486637.19,1,0.03,0.1,0.05,buy,29989,29988,963,Strategic Cruiser
2019-07-17,ProteusManufacture,16263868.44,10.59,11.84,132940389.22,1,0.03,0.1,0.05,buy,29989,29988,963,Strategic Cruiser
2019-07-16,ProteusManufacture,49681941.46,33.21,49.71,96745364.57,1,0.03,0.1,0.05,buy,29989,29988,963,Strategic Cruiser
2019-07-07,ProteusManufacture,-8892376.8,-6.6,-6.19,139110704.24,1,0.03,0.1,0.05,buy,29989,29988,963,Strategic Cruiser
2019-07-01,ProteusManufacture,54679808.41,40.16,67.12,78865189.85,1,0.03,0.1,0.05,buy,29989,29988,963,Strategic Cruiser
2019-06-28,ProteusManufacture,51856065.69,37.37,59.67,84127761.06,1,0.03,0.1,0.05,buy,29989,29988,963,Strategic Cruiser
2019-06-17,ProteusManufacture,33810057.38,23.85,31.33,104477599.63,1,0.03,0.1,0.05,buy,29989,29988,963,Strategic Cruiser
2019-06-15,ProteusManufacture,-20257544.71,-14.01,-12.29,159610491.7,1,0.03,0.1,0.05,buy,29989,29988,963,Strategic Cruiser
2019-06-12,ProteusManufacture,24845330.72,16.87,20.29,118518266.71,1,0.03,0.1,0.05,buy,29989,29988,963,Strategic Cruiser
2019-05-20,ProteusManufacture,4165265.23,3.63,3.76,107190586.95,1,0.03,0.1,0.05,buy,29989,29988,963,Strategic Cruiser
2019-04-15,ProteusManufacture,-30648062.48,-19.29,-16.17,183501634.29,1,0.03,0.1,0.05,buy,29989,29988,963,Strategic Cruiser
2019-04-13,ProteusManufacture,66373730.39,41.54,71.04,90443537.69,1,0.03,0.1,0.05,buy,29989,29988,963,Strategic Cruiser
2019-04-02,ProteusManufacture,19486310.04,11.94,13.56,139125282.51,1,0.03,0.1,0.05,buy,29989,29988,963,Strategic Cruiser
2020-05-09,LokiManufacture,45321557.91,28.58,40.02,109616110.45,1,0.03,0.1,0.05,buy,29991,29990,963,Strategic Cruiser
2020-05-07,LokiManufacture,-69187826.84,-44.21,-30.65,218490151.83,1,0.03,0.1,0.05,buy,29991,29990,963,Strategic Cruiser
2020-05-03,LokiManufacture,-85788252.2,-54.76,-35.38,234698211.23,1,0.03,0.1,0.05,buy,29991,29990,963,Strategic Cruiser
2020-04-29,LokiManufacture,-95818243.99,-64.05,-39.04,237566766.5,1,0.03,0.1,0.05,buy,29991,29990,963,Strategic Cruiser
2020-04-18,LokiManufacture,25509017.42,14.48,16.93,145901241.61,1,0.03,0.1,0.05,buy,29991,29990,963,Strategic Cruiser
2020-04-09,LokiManufacture,32899157.92,15.62,18.51,172038569.29,1,0.03,0.1,0.05,buy,29991,29990,963,Strategic Cruiser
2020-04-08,LokiManufacture,50690176.8,24.42,32.31,151873013.75,1,0.03,0.1,0.05,buy,29991,29990,963,Strategic Cruiser
2020-03-30,LokiManufacture,2253428.42,0.78,0.79,276587920.21,1,0.03,0.1,0.05,buy,29991,29990,963,Strategic Cruiser
2020-03-25,LokiManufacture,105129675.35,36.96,58.63,173572434.32,1,0.03,0.1,0.05,buy,29991,29990,963,Strategic Cruiser
2020-03-07,LokiManufacture,-62839825.59,-19.27,-16.16,376548717.9,1,0.03,0.1,0.05,buy,29991,29990,963,Strategic Cruiser
2020-03-01,LokiManufacture,-246671802.2,-91.77,-47.85,499005686.18,1,0.03,0.1,0.05,buy,29991,29990,963,Strategic Cruiser
2020-02-19,LokiManufacture,133149796.08,48.04,92.44,139440337.77,1,0.03,0.1,0.05,buy,29991,29990,963,Strategic Cruiser
2020-02-18,LokiManufacture,-252670722.36,-97.43,-49.35,495645131.62,1,0.03,0.1,0.05,buy,29991,29990,963,Strategic Cruiser
2020-02-13,LokiManufacture,-11029259.68,-4.94,-4.71,226647164.41,1,0.03,0.1,0.05,buy,29991,29990,963,Strategic Cruiser
2020-02-10,LokiManufacture,17605667.63,7.95,8.64,197234637.89,1,0.03,0.1,0.05,buy,29991,29990,963,Strategic Cruiser
2020-02-08,LokiManufacture,91694949.0,44.91,81.53,108868346.33,1,0.03,0.1,0.05,buy,29991,29990,963,Strategic Cruiser
2020-01-06,LokiManufacture,72620001.43,39.61,65.59,107180676.59,1,0.03,0.1,0.05,buy,29991,29990,963,Strategic Cruiser
2019-12-20,LokiManufacture,29211956.41,17.27,20.88,135419207.63,1,0.03,0.1,0.05,buy,29991,29990,963,Strategic Cruiser
2019-12-19,LokiManufacture,58334773.44,34.5,52.67,107226743.98,1,0.03,0.1,0.05,buy,29991,29990,963,Strategic Cruiser
2019-12-18,LokiManufacture,51455327.66,30.26,43.39,114806071.9,1,0.03,0.1,0.05,buy,29991,29990,963,Strategic Cruiser
2019-12-16,LokiManufacture,71192938.7,41.77,71.74,96067682.68,1,0.03,0.1,0.05,buy,29991,29990,963,Strategic Cruiser
2019-12-04,LokiManufacture,30506751.39,17.8,21.65,136377026.82,1,0.03,0.1,0.05,buy,29991,29990,963,Strategic Cruiser
2019-11-24,LokiManufacture,16630153.61,10.67,11.94,134823278.52,1,0.03,0.1,0.05,buy,29991,29990,963,Strategic Cruiser
2019-11-17,LokiManufacture,45340018.3,26.09,35.31,124312663.68,1,0.03,0.1,0.05,buy,29991,29990,963,Strategic Cruiser
2019-11-16,LokiManufacture,9204816.89,6.06,6.45,138224279.05,1,0.03,0.1,0.05,buy,29991,29990,963,Strategic Cruiser
2019-11-14,LokiManufacture,15722758.76,10.7,11.98,127062095.69,1,0.03,0.1,0.05,buy,29991,29990,963,Strategic Cruiser
2019-11-09,LokiManufacture,20989011.75,15.24,17.98,113007947.28,1,0.03,0.1,0.05,buy,29991,29990,963,Strategic Cruiser
2019-10-26,LokiManufacture,-21111974.2,-16.1,-13.87,147349414.1,1,0.03,0.1,0.05,buy,29991,29990,963,Strategic Cruiser
2019-10-06,LokiManufacture,-3725397.85,-2.65,-2.58,139714798.12,1,0.03,0.1,0.05,buy,29991,29990,963,Strategic Cruiser
2019-10-05,LokiManufacture,-15460802.01,-11.15,-10.03,149147096.01,1,0.03,0.1,0.05,buy,29991,29990,963,Strategic Cruiser
2019-10-02,LokiManufacture,-13532822.9,-9.75,-8.88,147506369.44,1,0.03,0.1,0.05,buy,29991,29990,963,Strategic Cruiser
2019-09-11,LokiManufacture,45323532.04,26.16,35.43,123852065.84,1,0.03,0.1,0.05,buy,29991,29990,963,Strategic Cruiser
2019-09-01,LokiManufacture,75245794.46,42.78,74.78,97409315.25,1,0.03,0.1,0.05,buy,29991,29990,963,Strategic Cruiser
2019-08-29,LokiManufacture,-26615137.72,-14.99,-13.03,197701493.33,1,0.03,0.1,0.05,buy,29991,29990,963,Strategic Cruiser
2019-08-24,LokiManufacture,-14807111.57,-8.26,-7.63,187964289.42,1,0.03,0.1,0.05,buy,29991,29990,963,Strategic Cruiser
2019-08-12,LokiManufacture,-3949506.53,-2.2,-2.15,177636417.94,1,0.03,0.1,0.05,buy,29991,29990,963,Strategic Cruiser
2019-08-03,LokiManufacture,-6197043.61,-3.4,-3.29,182556917.18,1,0.03,0.1,0.05,buy,29991,29990,963,Strategic Cruiser
2019-07-20,LokiManufacture,45364878.23,24.87,33.11,132648150.59,1,0.03,0.1,0.05,buy,29991,29990,963,Strategic Cruiser
2019-07-16,LokiManufacture,84571022.43,44.63,80.62,101550418.37,1,0.03,0.1,0.05,buy,29991,29990,963,Strategic Cruiser
2019-07-15,LokiManufacture,83530609.7,44.09,78.85,102557826.02,1,0.03,0.1,0.05,buy,29991,29990,963,Strategic Cruiser
2019-07-07,LokiManufacture,14217263.1,9.51,10.5,131027770.4,1,0.03,0.1,0.05,buy,29991,29990,963,Strategic Cruiser
2019-07-01,LokiManufacture,60899154.19,41.34,70.46,83670243.65,1,0.03,0.1,0.05,buy,29991,29990,963,Strategic Cruiser
2019-06-28,LokiManufacture,75283997.59,48.95,95.88,76008814.5,1,0.03,0.1,0.05,buy,29991,29990,963,Strategic Cruiser
2019-06-27,LokiManufacture,45335786.7,29.57,41.98,104548805.21,1,0.03,0.1,0.05,buy,29991,29990,963,Strategic Cruiser
2019-06-21,LokiManufacture,78549404.04,46.19,85.85,88577537.21,1,0.03,0.1,0.05,buy,29991,29990,963,Strategic Cruiser
2019-06-15,LokiManufacture,-39587677.76,-25.35,-20.22,189514552.42,1,0.03,0.1,0.05,buy,29991,29990,963,Strategic Cruiser
2019-06-14,LokiManufacture,-38919406.13,-24.86,-19.91,189225458.15,1,0.03,0.1,0.05,buy,29991,29990,963,Strategic Cruiser
2019-06-03,LokiManufacture,-25944116.4,-16.9,-14.46,173730073.89,1,0.03,0.1,0.05,buy,29991,29990,963,Strategic Cruiser
2019-05-29,LokiManufacture,-34361177.34,-21.92,-17.98,184996734.14,1,0.03,0.1,0.05,buy,29991,29990,963,Strategic Cruiser
2019-05-21,LokiManufacture,-35166120.66,-23.8,-19.22,177087066.42,1,0.03,0.1,0.05,buy,29991,29990,963,Strategic Cruiser
2019-05-08,LokiManufacture,54584754.45,35.14,54.19,97512814.94,1,0.03,0.1,0.05,buy,29991,29990,963,Strategic Cruiser
2019-04-23,LokiManufacture,64746774.18,38.02,61.34,102180645.16,1,0.03,0.1,0.05,buy,29991,29990,963,Strategic Cruiser
2019-04-18,LokiManufacture,49452332.31,28.61,40.08,119456429.83,1,0.03,0.1,0.05,buy,29991,29990,963,Strategic Cruiser
2019-04-05,LokiManufacture,94005703.9,51.24,105.09,86593922.32,1,0.03,0.1,0.05,buy,29991,29990,963,Strategic Cruiser
